{
  "filled": [
    "access_alarms",
    "alarm_add",
    "battery_20",
    "battery_30",
    "battery_50",
    "battery_60",
    "battery_80",
    "battery_90",
    "battery_charging_20",
    "battery_charging_30",
    "battery_charging_50",
    "battery_charging_60",
    "battery_charging_80",
    "battery_charging_90",
    "battery_std",
    "bluetooth_audio",
    "brightness_5",
    "brightness_6",
    "brightness_7",
    "chevron_left",
    "chevron_right",
    "clear",
    "create",
    "dns",
    "east",
    "expand_less",
    "expand_more",
    "facebook",
    "flight",
    "local_airport",
    "local_hotel",
    "mail",
    "markunread",
    "navigate_before",
    "navigate_next",
    "people_alt",
    "perm_identity",
    "person_add_alt_1",
    "person_remove_alt_1",
    "photo_camera",
    "qr_code_2",
    "request_page",
    "settings_input_composite",
    "signal_cellular_0_bar",
    "signal_cellular_1_bar",
    "signal_cellular_2_bar",
    "signal_cellular_3_bar",
    "signal_cellular_4_bar",
    "signal_cellular_connected_no_internet_0_bar",
    "signal_cellular_connected_no_internet_1_bar",
    "signal_cellular_connected_no_internet_2_bar",
    "signal_cellular_connected_no_internet_3_bar",
    "signal_cellular_connected_no_internet_4_bar",
    "signal_wifi_0_bar",
    "signal_wifi_1_bar_lock",
    "signal_wifi_1_bar",
    "signal_wifi_2_bar_lock",
    "signal_wifi_2_bar",
    "signal_wifi_3_bar_lock",
    "signal_wifi_3_bar",
    "signal_wifi_4_bar_lock",
    "signal_wifi_4_bar",
    "stay_primary_landscape",
    "stay_primary_portrait",
    "thumb_down_alt",
    "thumb_up_alt",
    "wb_cloudy",
    "qr_code_2",
    "request_page",
    "star_rate",
    "sentiment_satisfied_alt",
    "sticky_note_2",
    "outbound",
    "science",
    "api",
    "pin",
    "push_pin",
    "arrow_back_ios_new",
    "pie_chart_outlined",
    "pie_chart_outline",
    "mode_edit_outline",
    "mode",
    "shop_2",
    "directions_boat_filled",
    "directions_bus_filled",
    "data_saver_off",
    "directions_car_filled",
    "directions_railway_filled",
    "directions_subway_filled",
    "directions_transit_filled",
    "do_disturb_on",
    "do_disturb",
    "do_disturb_alt",
    "headphones",
    "inventory_2",
    "location_disabled",
    "ocation_searching",
    "my_location",
    "star_border_purple500",
    "personal_injury",
    "real_estate_agent",
    "space_dashboard",
    "query_builder",
    "access_time",
    "system_security_update_good",
    "class",
    "file_upload",
    "file_download",
    "get_app",
    "backup",
    "add_to_photos",
    "queue",
    "store_mall_directory",
    "turned_in",
    "turned_in_not",
    "star_border",
    "watch_later",
    "control_point",
    "plus_one",
    "room",
    "place",
    "location_searching",
    "payment",
    "redeem",
    "brightness_1",
    "circle",
    "panorama_fish_eye",
    "topic",
    "people",
    "sd_card_alert",
    "assessment",
    "poll",
    "local_offer",
    "local_grocery_store",
    "money_off_csred",
    "movie_creation",
    "local_movies",
    "report_problem",
    "laptop",
    "personal_video",
    "signal_wifi_connected_no_internet_4",
    "motorcycle",
    "lock_outline",
    "lightbulb_outline",
    "label_outline",
    "maps_home_work",
    "check_circle_outline",
    "access_time_filled",
    "add_circle_outline",
    "bookmark_border",
    "chat_bubble_outline",
    "cloud_queue",
    "delete_outline",
    "error_outline",
    "euro_symbol",
    "favorite_border",
    "gamepad",
    "help_outline",
    "https",
    "info_outline",
    "insert_chart_outlined",
    "lock_outline",
    "motion_photos_paused",
    "no_encryption_gmailerrorred",
    "pause_circle_filled",
    "pause_circle_outline",
    "people_outline",
    "person_outline",
    "play_circle_filled",
    "play_circle_outline",
    "remove_circle_outline",
    "replay_circle_filled",
    "report_gmailerrorred",
    "sd_storage",
    "star_outline",
    "warning_amber",
    "work_outline",
    "thumb_down_off_alt",
    "thumb_up_off_alt",
    "panorama_horizontal_select",
    "panorama_photosphere_select",
    "panorama_vertical_select",
    "panorama_wide_angle_select",
    "amp_stories",
    "directions_transit",
    "do_disturb_off",
    "outlined_flag",
    "done_outline",
    "mail_outline",
    "drive_file_rename_outline",
    "check_box_outline_blank",
    "star_purple500"
  ],
  "outlined": [
    "input",
    "list",
    "swap_vert",
    "1x_mobiledata",
    "30fps",
    "30fps_select",
    "360",
    "3g_mobiledata",
    "4g_mobiledata",
    "4g_plus_mobiledata",
    "60fps",
    "60fps_select",
    "6_ft_apart",
    "access_alarm",
    "accessibility",
    "accessibility_new",
    "adb",
    "add",
    "add_alarm",
    "add_road",
    "add_task",
    "adjust",
    "ads_click",
    "air",
    "airline_seat_legroom_normal",
    "airline_seat_legroom_reduced",
    "airline_seat_recline_extra",
    "align_horizontal_center",
    "align_horizontal_left",
    "align_horizontal_right",
    "align_vertical_bottom",
    "align_vertical_center",
    "align_vertical_top",
    "airplanemode_active",
    "alt_route",
    "anchor",
    "apartment",
    "api_alt",
    "apps",
    "architecture",
    "arrow_back",
    "arrow_circle_down",
    "arrow_circle_up",
    "arrow_left",
    "arrow_right",
    "arrow_upward",
    "aspect_ratio",
    "attach_file",
    "attach_money",
    "auto_graph",
    "autofps_select",
    "autorenew",
    "av_timer",
    "baby_changing_station",
    "backup_table",
    "balcony",
    "batch_prediction",
    "battery_alert",
    "battery_charging_full",
    "battery_full",
    "battery_saver",
    "bed",
    "bike_scooter",
    "block",
    "bluetooth",
    "bluetooth_connected",
    "bluetooth_disabled",
    "blur_circular",
    "blur_linear",
    "blur_on",
    "border_all",
    "border_bottom",
    "border_clear",
    "border_horizontal",
    "border_inner",
    "border_left",
    "border_outer",
    "border_right",
    "border_style",
    "border_top",
    "border_vertical",
    "browser_not_supported",
    "business",
    "cabin",
    "cable",
    "cached",
    "calendar_view_month",
    "calendar_view_week",
    "call_merge",
    "call_missed_outgoing",
    "camera_outdoor",
    "card_membership",
    "card_travel",
    "cast",
    "catching_pokemon",
    "chair_alt",
    "change_history",
    "check_box_blank",
    "checklist",
    "checklist_rtl",
    "checkroom",
    "clear_all",
    "close_fullscreen",
    "code",
    "code_off",
    "compare",
    "compare_arrows",
    "compost",
    "computer",
    "connect_without_contact",
    "construction",
    "content_copy",
    "content_paste_off",
    "copy_all",
    "corporate_fare",
    "credit_card",
    "credit_score",
    "crop",
    "crop_16_9",
    "crop_3_2",
    "crop_5_4",
    "crop_7_5",
    "crop_din",
    "crop_free",
    "crop_landscape",
    "crop_original",
    "crop_portrait",
    "crop_rotate",
    "crop_square",
    "data_saver_on",
    "data_usage",
    "desktop_mac",
    "desktop_windows",
    "developer_board_off",
    "developer_mode",
    "device_hub",
    "devices",
    "dialpad",
    "directions_bike",
    "directions_run",
    "do_not_disturb_on_total_silence",
    "dock",
    "domain",
    "domain_verification",
    "done_all",
    "double_arrow",
    "downhill_skiing",
    "drag_handle",
    "drag_indicator",
    "duo",
    "e_mobiledata",
    "edit_note",
    "edit_road",
    "elderly",
    "electric_bike",
    "electric_scooter",
    "electrical_services",
    "emoji_flags",
    "emoji_people",
    "emoji_symbols",
    "emoji_transportation",
    "equalizer",
    "escalator_warning",
    "euro",
    "exit_to_app",
    "exposure_neg_1",
    "exposure_plus_1",
    "family_restroom",
    "female",
    "fence",
    "filter",
    "filter_1",
    "filter_2",
    "filter_3",
    "filter_4",
    "filter_5",
    "filter_6",
    "filter_7",
    "filter_8",
    "filter_9",
    "filter_9_plus",
    "filter_b_and_w",
    "filter_center_focus",
    "filter_drama",
    "filter_list",
    "filter_none",
    "filter_tilt_shift",
    "find_replace",
    "fire_extinguisher",
    "flare",
    "flash_auto",
    "flatware",
    "flip",
    "flip_to_back",
    "flip_to_front",
    "flutter_dash",
    "folder_open",
    "follow_the_signs",
    "format_align_center",
    "format_align_justify",
    "format_align_left",
    "format_align_right",
    "format_bold",
    "format_indent_decrease",
    "format_indent_increase",
    "format_line_spacing",
    "format_list_bulleted",
    "format_list_numbered",
    "format_shapes",
    "format_size",
    "format_strikethrough",
    "format_underlined",
    "forward_to_inbox",
    "foundation",
    "fullscreen",
    "fullscreen_exit",
    "g_mobiledata",
    "g_translate",
    "gesture",
    "gite",
    "golf_course",
    "gps_fixed",
    "gps_not_fixed",
    "grading",
    "grain",
    "graphic_eq",
    "grass",
    "grid_3x3",
    "grid_4x4",
    "grid_goldenratio",
    "grid_on",
    "h_mobiledata",
    "h_plus_mobiledata",
    "hdr_off_select",
    "hdr_on",
    "hdr_on_select",
    "hdr_strong",
    "hdr_weak",
    "healing",
    "hearing",
    "hearing_disabled",
    "height",
    "hevc",
    "hide_source",
    "highlight_off",
    "hiking",
    "history_edu",
    "history_toggle_off",
    "home_max",
    "home_mini",
    "horizontal_distribute",
    "hourglass_bottom",
    "hourglass_disabled",
    "hourglass_empty",
    "hourglass_full",
    "hourglass_top",
    "house_siding",
    "http",
    "image_aspect_ratio",
    "import_contacts",
    "import_export",
    "important_devices",
    "incomplete_circle",
    "insert_emoticon",
    "insert_link",
    "insights",
    "iso",
    "kayaking",
    "keyboard_capslock",
    "keyboard_tab",
    "kitesurfing",
    "laptop_chromebook",
    "laptop_mac",
    "laptop_windows",
    "launch",
    "leak_add",
    "legend_toggle",
    "lens_blur",
    "line_style",
    "line_weight",
    "linear_scale",
    "local_atm",
    "local_dining",
    "local_fire_department",
    "local_parking",
    "location_city",
    "login",
    "looks",
    "loop",
    "loupe",
    "lte_mobiledata",
    "lte_plus_mobiledata",
    "male",
    "manage_search",
    "media_bluetooth_off",
    "media_bluetooth_on",
    "memory",
    "menu",
    "menu_book",
    "merge_type",
    "miscellaneous_services",
    "mode_standby",
    "model_training",
    "monochrome_photos",
    "mood",
    "more_horiz",
    "more_time",
    "more_vert",
    "multiline_chart",
    "multiple_stop",
    "music_video",
    "nat",
    "nearby_error",
    "nearby_off",
    "nfc",
    "no_meals",
    "nordic_walking",
    "north",
    "north_east",
    "north_west",
    "not_interested",
    "online_prediction",
    "opacity",
    "open_in_browser",
    "open_in_full",
    "open_in_new",
    "open_in_new_off",
    "open_with",
    "password",
    "pattern",
    "pause",
    "pedal_bike",
    "pending_actions",
    "pets",
    "phone_iphone",
    "phonelink",
    "phonelink_erase",
    "phonelink_lock",
    "phonelink_ring",
    "photo_size_select_large",
    "photo_size_select_small",
    "piano",
    "piano_off",
    "play_for_work",
    "plumbing",
    "podcasts",
    "point_of_sale",
    "post_add",
    "power_input",
    "power_settings_new",
    "pregnant_woman",
    "present_to_all",
    "priority_high",
    "production_quantity_limits",
    "public_off",
    "qr_code",
    "qr_code_scanner",
    "query_stats",
    "queue_play_next",
    "r_mobiledata",
    "radar",
    "radio_button_unchecked",
    "raw_off",
    "raw_on",
    "read_more",
    "recycling",
    "redo",
    "reduce_capacity",
    "refresh",
    "remove",
    "reorder",
    "repeat",
    "repeat_one",
    "reply",
    "reply_all",
    "restaurant_menu",
    "roofing",
    "rotate_90_degrees_ccw",
    "rotate_left",
    "rotate_right",
    "rounded_corner",
    "rowing",
    "rss_feed",
    "rsvp",
    "rule",
    "running_with_errors",
    "safety_divider",
    "screen_rotation",
    "search",
    "search_off",
    "security",
    "select_all",
    "self_improvement",
    "sensors",
    "sensors_off",
    "settings_accessibility",
    "settings_backup_restore",
    "settings_bluetooth",
    "settings_brightness",
    "settings_ethernet",
    "settings_input_antenna",
    "settings_input_svideo",
    "settings_overscan",
    "settings_power",
    "share_location",
    "shuffle",
    "shutter_speed",
    "signal_cellular_nodata",
    "signal_cellular_null",
    "signal_wifi_statusbar_4_bar",
    "signal_wifi_statusbar_connected_no_internet_4",
    "signal_wifi_statusbar_null",
    "single_bed",
    "skateboarding",
    "sledding",
    "slideshow",
    "smart_button",
    "smartphone",
    "snowboarding",
    "snowshoeing",
    "sort",
    "south",
    "south_east",
    "south_west",
    "speaker_phone",
    "spellcheck",
    "splitscreen",
    "sports",
    "sports_handball",
    "sports_hockey",
    "sports_kabaddi",
    "sports_score",
    "sports_soccer",
    "sports_tennis",
    "square_foot",
    "stacked_line_chart",
    "star_half",
    "stay_current_landscape",
    "stay_current_portrait",
    "storage",
    "storefront",
    "storm",
    "straighten",
    "streetview",
    "subdirectory_arrow_left",
    "subdirectory_arrow_right",
    "subject",
    "subscript",
    "superscript",
    "support",
    "support_agent",
    "surfing",
    "swap_calls",
    "swap_horiz",
    "switch_left",
    "switch_right",
    "sync",
    "sync_alt",
    "sync_problem",
    "system_update",
    "system_update_alt",
    "tab",
    "tab_unselected",
    "table_view",
    "tablet",
    "tablet_android",
    "tablet_mac",
    "tag_faces",
    "tap_and_play",
    "task_alt",
    "text_fields",
    "text_format",
    "texture",
    "thermostat_auto",
    "timer_10_select",
    "timer_3_select",
    "toc",
    "toll",
    "tonality",
    "track_changes",
    "transform",
    "transgender",
    "transit_enterexit",
    "translate",
    "travel_explore",
    "trip_origin",
    "tune",
    "tv",
    "umbrella",
    "undo",
    "unfold_less",
    "unfold_more",
    "upgrade",
    "usb_off",
    "vertical_align_bottom",
    "vertical_align_center",
    "vertical_align_top",
    "vertical_distribute",
    "vibration",
    "video_label",
    "video_settings",
    "view_headline",
    "voicemail",
    "wallpaper",
    "water",
    "waves",
    "wb_twilight",
    "wc",
    "web_asset_off",
    "west",
    "wheelchair_pickup",
    "wifi",
    "wifi_protected_setup",
    "wifi_tethering",
    "wifi_tethering_error_rounded",
    "wifi_tethering_off",
    "window",
    "wrap_text",
    "wysiwyg",
    "youtube_searched_for",
    "zoom_out"
  ]
}
