{
  "name": "scientist",
  "do": "<ul><li>Use it to represent a Scientist role.</li></ul>",
  "dont": "<ul><li>Don't use it as a normal user role.</li></ul>",
  "tags": ["eos", "chemist", "researcher", "lab", "science"],
  "category": "roles",
  "type": "static",
  "date": "30/11/2020",
  "hasOutlined": true,
  "dateOutlined": "23/04/2021"
}
